%YAML 1.1
%TAG !u! tag:unity3d.com,2011:
--- !u!114 &11400000
MonoBehaviour:
  m_ObjectHideFlags: 0
  m_CorrespondingSourceObject: {fileID: 0}
  m_PrefabInstance: {fileID: 0}
  m_PrefabAsset: {fileID: 0}
  m_GameObject: {fileID: 0}
  m_Enabled: 1
  m_EditorHideFlags: 0
  m_Script: {fileID: 11500000, guid: bbb281ee3bf0b054c82ac2347e9e782c, type: 3}
  m_Name: Textures
  m_EditorClassIdentifier: 
  m_GroupName: Textures
  m_Data:
    m_SerializedData: []
  m_GUID: 340abdb896693d948bf4c2b263f8acc7
  m_SerializeEntries: []
  m_ReadOnly: 0
  m_Settings: {fileID: 11400000, guid: 0d85fd5b3b617964daaa23743c9a9b01, type: 2}
  m_SchemaSet:
    m_Schemas:
    - {fileID: 11400000, guid: 142b420a4d8158043a73e60c77993b01, type: 2}
    - {fileID: 11400000, guid: b905565bf495eb34ab935d0d1380ed5f, type: 2}
