%YAML 1.1
%TAG !u! tag:unity3d.com,2011:
--- !u!114 &11400000
MonoBehaviour:
  m_ObjectHideFlags: 0
  m_CorrespondingSourceObject: {fileID: 0}
  m_PrefabInstance: {fileID: 0}
  m_PrefabAsset: {fileID: 0}
  m_GameObject: {fileID: 0}
  m_Enabled: 1
  m_EditorHideFlags: 0
  m_Script: {fileID: 11500000, guid: 468a46d0ae32c3544b7d98094e6448a9, type: 3}
  m_Name: AddressableAssetSettings
  m_EditorClassIdentifier: 
  m_DefaultGroup: bda68ceb25d98a449b95d5f085e12fb7
  m_OptimizeCatalogSize: 0
  m_BuildRemoteCatalog: 0
  m_BundleLocalCatalog: 0
  m_DisableCatalogUpdateOnStart: 0
  m_IgnoreUnsupportedFilesInBuild: 0
  m_UniqueBundleIds: 0
  m_maxConcurrentWebRequests: 500
  m_ContiguousBundles: 0
  m_RemoteCatalogBuildPath:
    m_Id: 
  m_RemoteCatalogLoadPath:
    m_Id: 
  m_overridePlayerVersion: 
  m_GroupAssets:
  - {fileID: 11400000, guid: c4ff87485fdfcc645a33681601ed441b, type: 2}
  - {fileID: 11400000, guid: 4043cdd1fce1d724b8c2ef7a8b2d68dd, type: 2}
  - {fileID: 11400000, guid: fe4cf2a9fb270014fbd2018ca517745f, type: 2}
  m_BuildSettings:
    m_CompileScriptsInVirtualMode: 0
    m_CleanupStreamingAssetsAfterBuilds: 1
    m_LogResourceManagerExceptions: 1
    m_BundleBuildPath: Temp/com.unity.addressables/AssetBundles
  m_ProfileSettings:
    m_Profiles:
    - m_InheritedParent: 
      m_Id: 9941ae7f132839a40af0a0a823a057dd
      m_ProfileName: Default
      m_Values:
      - m_Id: b1e577c7f3483064d977e323997bd028
        m_Value: '[UnityEditor.EditorUserBuildSettings.activeBuildTarget]'
      - m_Id: 7600b4dd67bcd844ea6f4d86df9beff2
        m_Value: '[UnityEngine.AddressableAssets.Addressables.BuildPath]/[BuildTarget]'
      - m_Id: 91031e9f30a52e4438a1531e8e328cdf
        m_Value: '{UnityEngine.AddressableAssets.Addressables.RuntimePath}/[BuildTarget]'
      - m_Id: d3edc46d272babf4498c40657e19eb8a
        m_Value: ServerData/[BuildTarget]
      - m_Id: d7046f5df4f29a34d8766e3f2d7bcc91
        m_Value: http://localhost/[BuildTarget]
    m_ProfileEntryNames:
    - m_Id: b1e577c7f3483064d977e323997bd028
      m_Name: BuildTarget
      m_InlineUsage: 0
    - m_Id: 7600b4dd67bcd844ea6f4d86df9beff2
      m_Name: LocalBuildPath
      m_InlineUsage: 0
    - m_Id: 91031e9f30a52e4438a1531e8e328cdf
      m_Name: LocalLoadPath
      m_InlineUsage: 0
    - m_Id: d3edc46d272babf4498c40657e19eb8a
      m_Name: RemoteBuildPath
      m_InlineUsage: 0
    - m_Id: d7046f5df4f29a34d8766e3f2d7bcc91
      m_Name: RemoteLoadPath
      m_InlineUsage: 0
    m_ProfileVersion: 1
  m_LabelTable:
    m_LabelNames:
    - default
  m_SchemaTemplates: []
  m_GroupTemplateObjects:
  - {fileID: 11400000, guid: 25ee2a2c9bd890a428c1f1e22721037e, type: 2}
  m_InitializationObjects: []
  m_CertificateHandlerType:
    m_AssemblyName: 
    m_ClassName: 
  m_ActivePlayerDataBuilderIndex: 3
  m_DataBuilders:
  - {fileID: 11400000, guid: ce919c29b49fa454dbf53e479f79295f, type: 2}
  - {fileID: 11400000, guid: 71953989040f9534c9b4253fcd6b922d, type: 2}
  - {fileID: 11400000, guid: 6e3b258a6693bf54ab523168d74b7a66, type: 2}
  - {fileID: 11400000, guid: ae23a915302b1394ba8cb8e8a7848a36, type: 2}
  m_ActiveProfileId: 9941ae7f132839a40af0a0a823a057dd
  m_HostingServicesManager:
    m_HostingServiceInfos: []
    m_Settings: {fileID: 11400000}
    m_NextInstanceId: 0
    m_RegisteredServiceTypeRefs: []
